NOAA 15                 
1 25338U 98030A   23350.46842451  .00000178  00000+0  91832-4 0  9990
2 25338  98.5887  16.2650 0011084 137.5629 222.6411 14.26453487331240
NOAA 18                 
1 28654U 05018A   23350.40263628  .00000257  00000+0  16130-3 0  9990
2 28654  98.8942  63.7742 0013745 220.9048 139.1093 14.13078286957301
NOAA 19                 
1 33591U 09005A   23350.47055998  .00000200  00000+0  13201-3 0  9996
2 33591  99.0760  39.0999 0014776  90.5780 269.7084 14.12886589765687
METOP-B                 
1 38771U 12049A   23350.48189883  .00000156  00000+0  90861-4 0  9993
2 38771  98.6554  46.5862 0001058 111.4461   3.3398 14.21525105583444
SARAL                   
1 39086U 13009A   23350.50264635  .00000132  00000+0  65076-4 0  9996
2 39086  98.5452 173.1855 0002945 100.8071 259.3444 14.32311861564789
METOP-C                 
1 43689U 18087A   23350.42737978  .00000151  00000+0  89074-4 0  9992
2 43689  98.7079  47.1882 0001772 231.7369 128.3649 14.21495977265016
ANGELS                  
1 44876U 19092D   23350.07220628  .00005339  00000+0  22457-3 0  9992
2 44876  97.4731 173.8145 0009169 246.3205 113.7071 15.23790309221293
GAZELLE                 
1 54023U 22127A   23350.45281084  .00000172  00000+0  65312-4 0  9993
2 54023  98.3337 343.9452 0014540  68.1513 292.1222 14.41958435 62649
EOS-6 (OCEANSAT-3)      
1 54361U 22158A   23350.49570190  .00000433  00000+0  13119-3 0  9992
2 54361  98.3545  85.0359 0001119  98.5561 261.5758 14.46983585 55705
