BEIJING 1               
1 28890U 05043A   23350.49002293  .00000428  00000+0  94714-4 0  9993
2 28890  98.1797 109.9964 0013778 260.5264  99.4380 14.62049393967050
HJ-1A                   
1 33320U 08041A   23350.46914693  .00001300  00000+0  18201-3 0  9997
2 33320  97.6362   1.6548 0019098 249.6012 110.3149 14.79015299823190
HJ-1B                   
1 33321U 08041B   23350.45966362  .00001123  00000+0  15504-3 0  9993
2 33321  97.6350   6.1321 0037457 297.3482  62.3920 14.79557847823202
YAOGAN 4                
1 33446U 08061A   23350.38585291  .00001272  00000+0  17865-3 0  9990
2 33446  97.8673 281.0306 0015995 157.2489 202.9434 14.79017994810382
DEIMOS-1                
1 35681U 09041A   23350.45661893  .00000653  00000+0  10919-3 0  9998
2 35681  97.6750 177.3061 0000202 185.6108 174.5098 14.72874372772260
UK-DMC 2                
1 35683U 09041C   23350.45044897  .00000955  00000+0  15715-3 0  9993
2 35683  97.7539 141.0626 0001148  81.7902 278.3437 14.72664531771961
RISAT 1                 
1 38248U 12017A   23350.47879391  .00007298  00000+0  34685-3 0  9991
2 38248  97.5347   2.7738 0004063 140.1812 219.9721 15.19505111641662
DMC3-FM1                
1 40715U 15032A   23350.42233828  .00000811  00000+0  10567-3 0  9994
2 40715  97.7742 229.4776 0006093 159.9589 200.1865 14.83164429454339
DMC3-FM2                
1 40716U 15032B   23350.44565364  .00000846  00000+0  10995-3 0  9993
2 40716  97.7793 230.4504 0007812 168.1001 192.0399 14.83177524454339
DMC3-FM3                
1 40717U 15032C   23350.46717835  .00000842  00000+0  10953-3 0  9998
2 40717  97.7839 231.6468 0009364 166.6001 193.5463 14.83169635454343
