APRIZESAT 2             
1 28366U 04025A   23350.52259068  .00000215  00000+0  80638-4 0  9992
2 28366  98.0930 194.5775 0107986 127.4277 233.6797 14.37147116 20380
SAUDICOMSAT 1           
1 28369U 04025D   23349.88398407  .00000528  00000+0  13711-3 0  9997
2 28369  98.5165 322.6762 0032044 303.9874  55.8278 14.53597127 31204
SAUDICOMSAT 2           
1 28370U 04025E   23350.47750701  .00000388  00000+0  11400-3 0  9992
2 28370  98.6088 323.6629 0057593 144.5460 215.9582 14.48390044 27812
APRIZESAT 1             
1 28372U 04025G   23350.45253714  .00000441  00000+0  12367-3 0  9997
2 28372  98.5699 323.2173 0046692  53.8124 306.7375 14.50389636 29424
NANOSAT-1               
1 28493U 04049B   23349.85416927  .00001140  00000+0  17453-3 0  9994
2 28493  98.1350  97.1155 0004064   4.1369 355.9873 14.75647147 20377
SAUDICOMSAT 7           
1 31119U 07012C   23349.84127957  .00000618  00000+0  12675-3 0  9997
2 31119  98.2541 298.0872 0058370 179.6442 180.4812 14.63237184888577
SAUDICOMSAT 6           
1 31121U 07012E   23350.39229245  .00000885  00000+0  18830-3 0  9990
2 31121  98.2888 293.6102 0073758 292.0453  67.2924 14.59916791886780
SAUDICOMSAT 5           
1 31124U 07012H   23350.41229426  .00000813  00000+0  15803-3 0  9995
2 31124  98.2243 299.7792 0051340 118.6387 241.9993 14.65041230889708
SAUDICOMSAT 3           
1 31125U 07012J   23349.83132245  .00000980  00000+0  18131-3 0  9994
2 31125  98.1908 300.1079 0043217  61.8388 298.7171 14.67044920890571
SAUDICOMSAT 4           
1 31127U 07012L   23349.79117180  .00000666  00000+0  13983-3 0  9993
2 31127  98.2748 296.5398 0065236 233.7938 125.7220 14.61718826887650
APRIZESAT 4             
1 35684U 09041D   23350.06214124  .00000740  00000+0  10166-3 0  9990
2 35684  98.2638  26.5672 0046559  37.4712 322.9729 14.80830126775977
APRIZESAT 3             
1 35686U 09041F   23349.83433488  .00001990  00000+0  20324-3 0  9996
2 35686  98.1066  94.0251 0068867 197.1152 162.7743 14.90092263779900
AISSAT 1                
1 36797U 10035C   23349.52531851  .00001985  00000+0  21300-3 0  9993
2 36797  98.2061 199.1363 0010087 183.6436 176.4709 14.89812337727791
S-NET D                 
1 43186U 18014G   23349.94629906  .00004536  00000+0  34836-3 0  9996
2 43186  97.6043 250.1855 0010653 273.5531  86.4475 15.02207169320822
S-NET B                 
1 43187U 18014H   23349.68142198  .00004519  00000+0  34711-3 0  9994
2 43187  97.6043 249.8609 0011530 270.1437  89.8467 15.02196993320783
S-NET A                 
1 43188U 18014J   23349.68115056  .00004536  00000+0  34833-3 0  9992
2 43188  97.6050 249.9597 0011409 270.9301  89.0616 15.02203860320782
S-NET C                 
1 43189U 18014K   23349.95030105  .00004562  00000+0  35024-3 0  9996
2 43189  97.6057 250.1336 0013104 262.5399  97.4337 15.02199817319375
SALSAT                  
1 46495U 20068K   23349.83939430  .00004190  00000+0  26125-3 0  9996
2 46495  97.7941 300.2565 0013330 217.4248 142.6053 15.10040130176466
